^C:\USERS\FARUK\SOURCE\REPOS\SCHWARZROT3\QUELLE.CPP
C:\USERS\FARUK\SOURCE\REPOS\SCHWARZROT3\X64\DEBUG\VC143.PDB
C:\USERS\FARUK\SOURCE\REPOS\SCHWARZROT3\X64\DEBUG\VC143.IDB
C:\USERS\FARUK\SOURCE\REPOS\SCHWARZROT3\X64\DEBUG\QUELLE.OBJ
